<?xml version="1.0" encoding="utf-8"?>
<!-- Generator: Adobe Illustrator 19.2.0, SVG Export Plug-In . SVG Version: 6.00 Build 0)  -->
<svg version="1.1" id="Layer_1" xmlns="http://www.w3.org/2000/svg" xmlns:xlink="http://www.w3.org/1999/xlink" x="0px" y="0px"
	 viewBox="0 0 22 22" style="enable-background:new 0 0 22 22;" xml:space="preserve">
<style type="text/css">
	.st0{fill:#333333;}
	.st1{fill:#BFBFBF;}
	.st2{fill:none;stroke:#BFBFBF;stroke-miterlimit:10;}
</style>
<g>
	<path class="st0" d="M11,1c5.5,0,10,4.5,10,10c0,5.5-4.5,10-10,10C5.5,21,1,16.5,1,11C1,5.5,5.5,1,11,1 M11,0L11,0
		C4.9,0,0,4.9,0,11v0c0,6.1,4.9,11,11,11h0c6.1,0,11-4.9,11-11v0C22,4.9,17.1,0,11,0L11,0z"/>
</g>
<g>
	<path class="st1" d="M11,6c2.8,0,5,2.2,5,5c0,2.8-2.2,5-5,5c-2.8,0-5-2.2-5-5C6,8.2,8.2,6,11,6 M11,5L11,5c-3.3,0-6,2.7-6,6v0
		c0,3.3,2.7,6,6,6h0c3.3,0,6-2.7,6-6v0C17,7.7,14.3,5,11,5L11,5z"/>
</g>
</svg>
